<?xml version="1.0" encoding="utf-8"?>
<!-- Generator: Adobe Illustrator 24.2.0, SVG Export Plug-In . SVG Version: 6.00 Build 0)  -->
<svg version="1.1" id="Layer_1" xmlns="http://www.w3.org/2000/svg" xmlns:xlink="http://www.w3.org/1999/xlink" x="0px" y="0px"
	 viewBox="0 0 36 36" style="enable-background:new 0 0 36 36;" xml:space="preserve">
<style type="text/css">
	.st0{fill:#312C30;}
	.st1{fill:#FFFFFF;}
	.st2{fill-rule:evenodd;clip-rule:evenodd;fill:#FFFFFF;}
</style>
<g id="Group_26" transform="translate(-660.666 -5388.022)">
	<path id="Path_18" class="st0" d="M678.7,5423.5c-9.7,0-17.5-7.8-17.5-17.5s7.8-17.5,17.5-17.5c9.7,0,17.5,7.8,17.5,17.5
		C696.2,5415.7,688.3,5423.5,678.7,5423.5z"/>
</g>
<g id="Group_19" transform="translate(-508.81 -5397.265)">
	<g id="Group_14">
		<path id="Path_10" class="st1" d="M537.2,5408.7c-0.7,0.3-1.4,0.5-2.1,0.6c0.3-0.1,0.8-0.7,1-0.9c0.3-0.4,0.5-0.8,0.7-1.3
			c0,0,0-0.1,0-0.1c0,0-0.1,0-0.1,0c-0.8,0.4-1.6,0.7-2.5,1c-0.1,0-0.1,0-0.2,0c-0.1-0.1-0.1-0.2-0.2-0.2c-0.4-0.3-0.8-0.6-1.2-0.7
			c-0.6-0.2-1.2-0.3-1.9-0.3c-0.6,0-1.2,0.2-1.8,0.5c-0.5,0.3-1,0.7-1.4,1.2c-0.4,0.5-0.7,1.1-0.9,1.7c-0.1,0.6-0.1,1.2,0,1.8
			c0,0.1,0,0.1-0.1,0.1c-3.3-0.3-6.4-1.9-8.6-4.4c-0.1-0.1-0.2-0.1-0.2,0c-0.9,1.7-0.6,3.8,0.7,5.2c0.2,0.2,0.3,0.3,0.5,0.5
			c-0.6,0-1.1-0.2-1.7-0.5c-0.1-0.1-0.2,0-0.2,0.1c0,0.2,0,0.3,0,0.5c0.2,1.6,1.2,2.9,2.7,3.5c0.2,0.1,0.4,0.1,0.6,0.2
			c-0.5,0.1-1.1,0.1-1.6,0.1c-0.1,0-0.2,0-0.1,0.1c0.6,1.5,1.9,2.6,3.4,2.9c0.2,0,0.3,0,0.5,0.1c0,0,0,0,0,0c-0.7,0.6-1.5,1-2.3,1.2
			c-1.1,0.4-2.3,0.6-3.6,0.5c-0.2,0-0.2,0-0.3,0s0,0.1,0.1,0.1c0.2,0.2,0.5,0.3,0.7,0.4c0.8,0.4,1.6,0.7,2.4,1
			c4.3,1.3,9,0.2,12.3-2.9c2.5-2.5,3.4-5.9,3.4-9.4c0-0.1,0.2-0.2,0.3-0.3c0.6-0.5,1.2-1.1,1.7-1.7
			C537.2,5409,537.3,5408.8,537.2,5408.7L537.2,5408.7C537.3,5408.7,537.3,5408.7,537.2,5408.7z"/>
	</g>
	<g id="Group_15">
		<path id="Path_11" class="st2" d="M522.6,5423.8"/>
	</g>
	<g id="Group_16">
		<path id="Path_12" class="st2" d="M522.6,5423.8C522.5,5423.8,522.2,5423.8,522.6,5423.8z"/>
	</g>
	<g id="Group_17">
		<path id="Path_13" class="st2" d="M523.3,5423.8C523.3,5423.8,523.6,5423.8,523.3,5423.8C523.3,5423.8,523.3,5423.8,523.3,5423.8z
			"/>
	</g>
	<g id="Group_18">
		<path id="Path_14" class="st2" d="M530.7,5406.7C530.6,5406.7,530.6,5406.7,530.7,5406.7L530.7,5406.7z"/>
	</g>
</g>
</svg>
